…
## [1] "crime_head_wise_persons_arrested_under_crime_against_children_during_2001_2012"

Next, we query the table found.

if (length(tables_df$tableName) > 0) {
  sample_qry <- data.world::qry_sql(sprintf("SELECT * FROM `%s`", tables_df$tableName[[1]]))
  sample_df <- data.world::query(sample_qry, dataset = dataset_key)
  #knitr::kable(head(sample_df), format = "html")
  sample_df
}

## # A tibble: 494 x 14
##    state_ut crime_head `2001` `2002` `2003` `2004` `2005` `2006` `2007`
##    <chr>    <chr>       <dbl>  <dbl>  <dbl>  <dbl>  <dbl>  <dbl>  <dbl>
##  1 ANDHRA … INFANTICI…      1      1      3      0      0      0      1
##  2 ARUNACH… INFANTICI…      0      0      0      0      0      0      0
##  3 JHARKHA… INFANTICI…      0      0      0      0      0      0      0
##  4 TRIPURA  RAPE OF C…      0      0      0     28      6     28     14
##  5 UTTAR P… RAPE OF C…    820    550    429    602    531    480    694
##  6 UTTARAK… RAPE OF C…     10      8     11     35     25     39     22
##  7 WEST BE… RAPE OF C…     11     16     17     17      6     33     43
##  8 TOTAL (… RAPE OF C…   2546   2642   3213   4001   4359   4996   5312
##  9 A & N I… RAPE OF C…      0      0      2      0      6      6      3
## 10 CHANDIG… RAPE OF C…     14      5     16      0     23      7     11
## # … with 484 more rows, and 5 more variables: `2008` <dbl>, `2009` <dbl>,
## #   `2010` <dbl>, `2011` <dbl>, `2012` <dbl>
…
# check for NA's
any(is.na(sample_df))

## [1] FALSE

Since there isn’t any missing values, I’ll move on to checking for duplicates and typos (or duplicates caused by typos) in the state and crime columns. Below, we identify 35 unique states (38 less 3 totals) and 12 unique crimes (also excluding total crime).

Check for duplicate states:

sample_df %>%
  arrange(state_ut) %>%
  select(state_ut) %>%
  unique() 

## # A tibble: 38 x 1
##    state_ut         
##    <chr>            
##  1 A & N ISLANDS    
##  2 ANDHRA PRADESH   
##  3 ARUNACHAL PRADESH
##  4 ASSAM            
##  5 BIHAR            
##  6 CHANDIGARH       
##  7 CHHATTISGARH     
##  8 D & N HAVELI     
##  9 DAMAN & DIU      
## 10 DELHI            
## # … with 28 more rows
…
