…
## [1] "crime_head_wise_persons_arrested_under_crime_against_children_during_2001_2012"

Next, we query the table found.

if (length(tables_df$tableName) > 0) {
  sample_qry <- data.world::qry_sql(sprintf("SELECT * FROM `%s`", tables_df$tableName[[1]]))
  sample_df <- data.world::query(sample_qry, dataset = dataset_key)
  sample_df
}

## # A tibble: 494 x 14
##    state_ut   crime_head  `2001` `2002` `2003` `2004` `2005` `2006` `2007`
##    <chr>      <chr>        <int>  <int>  <int>  <int>  <int>  <int>  <int>
##  1 ANDHRA PR… INFANTICIDE      1      1      3      0      0      0      1
##  2 ARUNACHAL… INFANTICIDE      0      0      0      0      0      0      0
##  3 JHARKHAND  INFANTICIDE      0      0      0      0      0      0      0
##  4 TRIPURA    RAPE OF CH…      0      0      0     28      6     28     14
##  5 UTTAR PRA… RAPE OF CH…    820    550    429    602    531    480    694
##  6 UTTARAKHA… RAPE OF CH…     10      8     11     35     25     39     22
##  7 WEST BENG… RAPE OF CH…     11     16     17     17      6     33     43
##  8 TOTAL (ST… RAPE OF CH…   2546   2642   3213   4001   4359   4996   5312
##  9 A & N ISL… RAPE OF CH…      0      0      2      0      6      6      3
## 10 CHANDIGARH RAPE OF CH…     14      5     16      0     23      7     11
## # ... with 484 more rows, and 5 more variables: `2008` <int>,
## #   `2009` <int>, `2010` <int>, `2011` <int>, `2012` <int>
…
# check for NA's
any(is.na(sample_df))

## [1] FALSE

Since there are no NA’s, I’ll move on to checking for duplicates and typos in the state and crime columns.

# check for duplicate states
sample_df %>%
  arrange(state_ut) %>%
  select(state_ut) %>%
  unique()

## # A tibble: 38 x 1
##    state_ut         
##    <chr>            
##  1 ANDHRA PRADESH   
##  2 A & N ISLANDS    
##  3 ARUNACHAL PRADESH
##  4 ASSAM            
##  5 BIHAR            
##  6 CHANDIGARH       
##  7 CHHATTISGARH     
##  8 DAMAN & DIU      
##  9 DELHI            
## 10 D & N HAVELI     
## # ... with 28 more rows
…
